<?xml version="1.0" encoding="UTF-8" standalone="no"?>
<!-- Created with Inkscape (http://www.inkscape.org/) -->

<svg
   width="64"
   height="63.999996"
   viewBox="0 0 16.933334 16.933331"
   version="1.1"
   id="svg2978"
   inkscape:version="1.2.2 (b0a8486541, 2022-12-01)"
   sodipodi:docname="button_square_green_hovered.svg"
   xmlns:inkscape="http://www.inkscape.org/namespaces/inkscape"
   xmlns:sodipodi="http://sodipodi.sourceforge.net/DTD/sodipodi-0.dtd"
   xmlns="http://www.w3.org/2000/svg"
   xmlns:svg="http://www.w3.org/2000/svg">
  <sodipodi:namedview
     id="namedview2980"
     pagecolor="#ffffff"
     bordercolor="#999999"
     borderopacity="1"
     inkscape:showpageshadow="0"
     inkscape:pageopacity="0"
     inkscape:pagecheckerboard="0"
     inkscape:deskcolor="#d1d1d1"
     inkscape:document-units="px"
     showgrid="false"
     inkscape:zoom="4.9472489"
     inkscape:cx="-13.54288"
     inkscape:cy="57.607775"
     inkscape:window-width="1870"
     inkscape:window-height="1043"
     inkscape:window-x="1970"
     inkscape:window-y="0"
     inkscape:window-maximized="1"
     inkscape:current-layer="layer1" />
  <defs
     id="defs2975">
    <clipPath
       id="_clip18">
      <rect
         x="233"
         y="162"
         width="302"
         height="138"
         id="rect429" />
    </clipPath>
  </defs>
  <g
     inkscape:label="layer"
     inkscape:groupmode="layer"
     id="layer1"
     transform="matrix(2.0071928,0,0,1.0077984,-0.24343997,-0.06597309)">
    <rect
       style="fill:#000000;fill-opacity:1;stroke-width:0.499374;stroke-linecap:square;stroke-linejoin:round;stroke-miterlimit:0;stop-color:#000000"
       id="rect354"
       width="8.436326"
       height="16.802301"
       x="0.1212838"
       y="0.065462589"
       inkscape:label="border" />
    <rect
       style="fill:#008000;fill-opacity:1;stroke:none;stroke-width:0.516079;stroke-linecap:square;stroke-linejoin:round;stroke-miterlimit:0;stroke-dasharray:none;paint-order:stroke markers fill;stop-color:#000000"
       id="rect293"
       width="7.9090557"
       height="15.752158"
       x="0.38491899"
       y="0.59053451"
       inkscape:label="content" />
  </g>
</svg>
