<?xml version="1.0" encoding="UTF-8" standalone="no"?>
<svg
   height="32"
   viewBox="0 0 32 31.999998"
   width="32"
   version="1.1"
   id="svg4"
   sodipodi:docname="icon_button_unchecked.svg"
   inkscape:version="1.2.2 (b0a8486541, 2022-12-01)"
   xmlns:inkscape="http://www.inkscape.org/namespaces/inkscape"
   xmlns:sodipodi="http://sodipodi.sourceforge.net/DTD/sodipodi-0.dtd"
   xmlns="http://www.w3.org/2000/svg"
   xmlns:svg="http://www.w3.org/2000/svg">
  <defs
     id="defs8" />
  <sodipodi:namedview
     id="namedview6"
     pagecolor="#ffffff"
     bordercolor="#999999"
     borderopacity="1"
     inkscape:pageshadow="0"
     inkscape:pageopacity="0"
     inkscape:pagecheckerboard="0"
     showgrid="false"
     width="32px"
     inkscape:zoom="44.9375"
     inkscape:cx="12.305981"
     inkscape:cy="12.194715"
     inkscape:window-width="1866"
     inkscape:window-height="1011"
     inkscape:window-x="54"
     inkscape:window-y="0"
     inkscape:window-maximized="1"
     inkscape:current-layer="svg4"
     inkscape:showpageshadow="0"
     inkscape:deskcolor="#d1d1d1" />
  <path
     d="M 5.9999999,1 C 3.2384999,1 1,3.2385749 1,5.9999999 V 26.000001 C 1,28.761501 3.2385749,31 5.9999999,31 H 26.000001 C 28.761501,31 31,28.761426 31,26.000001 V 5.9999999 C 31,3.2384999 28.761426,1 26.000001,1 Z"
     fill="#1a1a1a"
     fill-opacity="0.5"
     stroke-width="2.50001"
     id="path2"
     style="fill:#000000;fill-opacity:0.5" />
</svg>
