<?xml version="1.0" encoding="UTF-8" standalone="no"?>
<svg
   width="48"
   height="48"
   version="1.1"
   id="svg4"
   sodipodi:docname="icon_close2.svg"
   inkscape:version="1.1.2 (0a00cf5339, 2022-02-04)"
   xmlns:inkscape="http://www.inkscape.org/namespaces/inkscape"
   xmlns:sodipodi="http://sodipodi.sourceforge.net/DTD/sodipodi-0.dtd"
   xmlns="http://www.w3.org/2000/svg"
   xmlns:svg="http://www.w3.org/2000/svg">
  <defs
     id="defs8" />
  <sodipodi:namedview
     id="namedview6"
     pagecolor="#ffffff"
     bordercolor="#999999"
     borderopacity="1"
     inkscape:pageshadow="0"
     inkscape:pageopacity="0"
     inkscape:pagecheckerboard="0"
     showgrid="false"
     width="48px"
     inkscape:zoom="14.809078"
     inkscape:cx="25.524884"
     inkscape:cy="-15.429725"
     inkscape:window-width="1866"
     inkscape:window-height="1016"
     inkscape:window-x="54"
     inkscape:window-y="0"
     inkscape:window-maximized="1"
     inkscape:current-layer="svg4" />
  <path
     style="fill:#ffffff;stroke-width:3.99999"
     d="M 12.00005,8.0000668 A 3.9999831,3.999983 0 0 0 8.0000668,12.00005 3.9999831,3.999983 0 0 0 9.160062,14.840038 L 18.360024,24 9.160062,33.159961 a 3.9999831,3.999983 0 0 0 -1.1599952,2.839988 3.9999831,3.999983 0 0 0 3.9999832,3.999983 3.9999831,3.999983 0 0 0 2.839988,-1.159995 L 24,29.639976 l 9.11996,9.159961 a 3.9999831,3.999983 0 0 0 2.879988,1.199995 3.9999831,3.999983 0 0 0 3.999984,-3.999983 3.9999831,3.999983 0 0 0 -1.159996,-2.839988 L 29.639976,24 38.799936,14.880038 A 3.9999831,3.999983 0 0 0 39.999932,12.00005 3.9999831,3.999983 0 0 0 35.999948,8.0000668 3.9999831,3.999983 0 0 0 33.15996,9.1600619 L 24,18.360024 14.880038,9.2000617 a 3.9999831,3.999983 0 0 0 -0.04,-0.04 3.9999831,3.999983 0 0 0 -2.839988,-1.1599949 z"
     id="path2" />
</svg>
